<svg width="64" height="64" viewBox="0 0 64 64" fill="none" xmlns="http://www.w3.org/2000/svg">
<path d="M8.86861 10.316L28.4783 6L48.0879 10.316C48.6179 10.4327 49.0918 10.7248 49.4315 11.1442C49.7712 11.5636 49.9564 12.0852 49.9565 12.6229V36.2285C49.9564 38.5632 49.3742 40.8617 48.2619 42.92C47.1495 44.9784 45.5412 46.7329 43.5799 48.0278L28.4783 58L13.3767 48.0278C11.4156 46.7331 9.80759 44.979 8.69523 42.9211C7.58286 40.8632 7.00056 38.5652 7 36.2309V12.6229C7.00009 12.0852 7.18528 11.5636 7.525 11.1442C7.86472 10.7248 8.33866 10.4327 8.86861 10.316Z" fill="#1D1D1F"/>
<path d="M58.1667 33.8333V32.8333H57.1667H49.4792C46.7688 32.8333 44.2642 33.7256 42.2468 35.2311C40.6455 29.891 35.695 26 29.8333 26H23H22V27V32.125C22 39.2817 27.8016 45.0833 34.9583 45.0833H37.375V57.75V58.75H38.375H41.7917H42.7917V57.75V50.2083H46.0625C52.7477 50.2083 58.1667 44.7894 58.1667 38.1042V33.8333Z" fill="#B72126" stroke="white" stroke-width="2"/>
<path d="M29.8332 30.417H26.4165V32.1253C26.4165 36.842 30.2415 40.667 34.9582 40.667H38.3748V38.9587C38.3748 34.242 34.5499 30.417 29.8332 30.417Z" fill="white"/>
<path d="M53.7498 37.25H49.479C45.2338 37.25 41.7915 40.6923 41.7915 44.9375V45.7917H46.0623C50.3075 45.7917 53.7498 42.3494 53.7498 38.1042V37.25Z" fill="white"/>
</svg>
